Reducing data complexity
…
Transform data

Code

consumer_brand_scale <- consumer_brand |> 
  mutate(across(.cols = perform:rebuy,
                .fns = ~ scale(x = .x,
                               center = TRUE,
                               scale = TRUE)[,1]))

consumer_brand_scale

# A tibble: 1,000 × 10
   perform leader latest    fun serious bargain  value  trendy  rebuy brand
     <dbl>  <dbl>  <dbl>  <dbl>   <dbl>   <dbl>  <dbl>   <dbl>  <dbl> <chr>
 1  -0.777 -0.160  0.586  0.704  -0.836  1.78    1.11  -0.445   0.893 a    
 2  -1.09  -1.31  -0.713  0.340  -1.20  -1.22   -1.39  -1.17   -0.679 a    
 3  -0.777 -0.543 -0.388  1.07   -0.836  1.78    0.276 -1.54    0.893 a    
 4  -1.09   0.607  1.24   0.704  -0.476 -0.0971  0.276 -1.17   -1.07  a    
 5  -1.09  -1.31  -0.388  0.704  -1.20   1.78    1.94  -1.54   -1.07  a    
 6  -0.777  1.37   0.911 -0.389  -0.476  1.40    1.11  -1.54   -0.679 a    
 7  -1.09  -1.31  -0.388  0.340  -1.20   0.278  -1.39  -1.54   -1.07  a    
 8  -0.777 -1.31   0.262 -0.389  -0.836  1.40    1.11   0.649  -1.07  a    
 9  -0.777 -1.31   0.586  1.43   -1.20   1.03    1.11  -0.0802 -1.07  a    
10  -0.464 -1.31   0.911  0.704  -1.20  -0.472  -0.557 -0.445  -1.07  a    
# ℹ 990 more rows
…
